{
  "datetime" : "2016-09-05T19:33:20-0300",
  "executable" : "br.com.teste1.Calculadora#som",
  "args" : {
    "num1" : "1",
    "num2" : "1"
  },
  "cpuTime" : 5,
  "wallTime" : 3.0,
  "returnType" : "int",
  "result" : 2
}
{
  "datetime" : "2016-09-06T19:33:21-0300",
  "executable" : "br.com.teste.Calculadora#sub",
  "args" : {
    "num1" : "2",
    "num2" : "2"
  },
  "cpuTime" : 9,
  "wallTime" : 3.0,
  "returnType" : "int",
  "result" : 0
}
{
  "datetime" : "2016-09-07T19:33:21-0300",
  "executable" : "br.com.teste.Calculadora#sub",
  "args" : {
    "num1" : "2",
    "num2" : "2"
  },
  "cpuTime" : 9,
  "wallTime" : 3.0,
  "returnType" : "int",
  "result" : 0
}
{
  "datetime" : "2016-09-08T19:33:21-0300",
  "executable" : "br.com.teste1.Calculadora#sub",
  "args" : {
    "num1" : "2",
    "num2" : "2"
  },
  "cpuTime" : 5,
  "wallTime" : 3.0,
  "returnType" : "int",
  "result" : 0
}




