{
  "datetime" : "2016-10-06T10:21:53-0300",
  "executable" : "br.com.teste.Calculadora#div",
  "args" : {
    "num1" : "4",
    "num2" : "0"
  },
  "cpuTime" : 7.5489E-5,
  "wallTime" : 1.98674E-4,
  "returnType" : "int",
  "exception" : {
    "name" : "java.lang.ArithmeticException",
    "file" : "Calculadora.java",
    "line" : 23,
    "message" : "/ by zero"
  }
}
